{
    "purchaseFailed": {
        "method": "POST",
        "status": 500,
        "response": {
            "err": "UNKOWN_ERROR"
        }
    },
    "purchaseSuccessful": {
        "method": "POST",
        "status": 200,
        "response": {
            "res": true
        }
    },
    "getOpenDraws": {
        "method": "POST",
        "status": 200,
        "response": {
            "res": [
                {
                    "lotteryId": "4d56a4de-15e1-11ea-a71f-028f766baf66",
                    "currency": "EUR",
                    "draws": [
                        {
                            "drawId": "ccb27804-ca35-4db4-bb6e-622b47cf0ab7",
                            "dayOfWeek": 4,
                            "drawDate": "2020-08-13T02:59:00.000Z",
                            "ticketPrices": [
                                {
                                    "modelTypeCode": "INS",
                                    "price": 2
                                }
                            ],
                            "prizes": [
                                {
                                    "tierLevel": 1,
                                    "prize": 143582400
                                },
                                {
                                    "tierLevel": 2,
                                    "prize": 849600
                                }
                            ],
                            "jackpot": 143582400
                        }
                    ]
                }
            ]
        }
    }
}