{
    "authModel": {
      "email": "api4@test.com",
      "username": "003567722557-0",
      "password": "Megalotto2019!",
      "gender": "M",
      "address1": "Church Street 2",
      "country": "MT",
      "currency": "EUR",
      "phone": "77825582",
      "mobile": "77825582",
      "city": "Saint Julian's",
      "phonePrefix": "+356",
      "mobilePrefix": "+356",
      "postalCode": "0000000",
      "reference": "-",
      "firstname": "Pepito4",
      "surname": "Grillo4",
      "birthDate": "1990-12-12",
      "verificationTypeID": 4,
      "securityAnswer": "pomidor",
      "securityQuestionID": 0,
      "mobileVerificationCode": "",
      "acceptNewsEmail": true,
      "acceptSMSOffer": true
    },
    "userConsents": [
      {
        "consentId": 2736,
        "name": "PRIVACY_AND_COOKIE_NOTICE",
        "version": 4,
        "isMandatory": true,
        "consented": true,
        "consentContents": {
          "languageAlpha2Code": "en",
          "header": "That my personal data will be processed according to the <a class=\"link\" href=\"/en/tnc/privacy-and-cookie-policy\">privacy  and cookie policy</a> by Gaming Innovation Group plc, as data controller.",
          "content": "That my personal data will be processed according to the <a class=\"link\" href=\"/en/?modal=%2Fen%2Ftnc%2Fprivacy-and-cookie-policy\">privacy and cookie policy</a> by Gaming Group plc, as data controller.\nConveniently deploy holistic vortals whereas competitive results. Quickly administrate business customer service without maintainable solutions. Compellingly innovate."
        }
      },
      {
        "consentId": 2737,
        "name": "TERMS_AND_CONDITIONS",
        "version": 4,
        "isMandatory": true,
        "consented": true,
        "consentContents": {
          "languageAlpha2Code": "en",
          "header": "The <a class=\"link\" href=\"/en/tnc\">terms &amp; conditions</a> &amp; confirm that I am 18+.",
          "content": "Lorem ipsum dolor sit amet, consectetur adipiscing elit, sed do eiusmod tempor incididunt ut labore et dolore magna aliqua. Ut enim ad minim veniam, quis nostrud exercitation ullamco laboris nisi ut aliquip ex ea commodo consequat. Duis aute irure dolor in reprehenderit in voluptate velit esse cillum dolore eu fugiat nulla pariatur."
        }
      },
      {
        "consentId": 2738,
        "name": "ONSITE_PERSONALISED_MARKETING",
        "version": 1,
        "isMandatory": false,
        "consented": true,
        "consentContents": {
          "languageAlpha2Code": "en",
          "header": "Onsite personalised marketing",
          "content": "TBC"
        }
      }
    ],
    "lang": "en"
}